customerId,orderId,orderBuyerPartyId,orderSellerPartyId,orderReferenceCode,messageId,messageSenderPartyId,messageRecipientPartyId,messageType,messageCreatedAt,shipToPartyId,shipToLocationId,shipToAddressName,shipToAddressLine1,shipToAddressLine2,shipToAddressCity,shipToAddressState,shipToAddressPostCode,shipToAddressCountryCode,shipToDeliverAt,shipToDeliverLatestAt,itemId,itemLineId,itemBaseType,itemAlternateId,itemDescription,quantityType,quantityOrdered,createdAt
mccolls,AM-61420181125,Optional,Optional,AM,Optional,Optional,Optional,CNV,2018-11-23T00:00:00Z,Optional,614,Optional,Optional,Optional,Optional,Optional,Optional,Optional,2018-11-25,2018-11-25,105151542,0,skuPin,barcodeEan:wholesale|clientId:wholesale|skuPin:105151542|skuMin:105151534|skuLegacy:0457318,Optional,CS,15,2018-11-23T00:00:00Z
mccolls,AM-61420181125,Optional,Optional,AM,Optional,Optional,Optional,CNV,2018-11-23T00:00:00Z,Optional,614,Optional,Optional,Optional,Optional,Optional,Optional,Optional,2018-11-25,2018-11-25,105993352,0,skuPin,barcodeEan:wholesale|clientId:wholesale|skuPin:105993352|skuMin:105993344|skuLegacy:0197610,Optional,CS,20,2018-11-23T00:00:00Z
mccolls,AM-61420181125,Optional,Optional,AM,Optional,Optional,Optional,CNV,2018-11-23T00:00:00Z,Optional,614,Optional,Optional,Optional,Optional,Optional,Optional,Optional,2018-11-25,2018-11-25,108930402,0,skuPin,barcodeEan:wholesale|clientId:wholesale|skuPin:108930402|skuMin:108930381|skuLegacy:0417052,Optional,CS,10,2018-11-23T00:00:00Z
