customerId,orderId,orderBuyerPartyId,orderSellerPartyId,orderReferenceCode,messageId,messageSenderPartyId,messageRecipientPartyId,messageType,messageCreatedAt,shipToPartyId,shipToLocationId,shipToAddressName,shipToAddressLine1,shipToAddressLine2,shipToAddressCity,shipToAddressState,shipToAddressPostCode,shipToAddressCountryCode,shipToDeliverAt,shipToDeliverLatestAt,itemId,itemLineId,itemBaseType,itemAlternateId,itemDescription,quantityType,quantityOrdered,createdAt
mccolls,AM-37620181129,Optional,Optional,AM,Optional,Optional,Optional,CNV,2018-11-28T00:00:00Z,Optional,376,Optional,Optional,Optional,Optional,Optional,Optional,Optional,2018-11-29,2018-11-29,106500804,0,skuPin,barcodeEan:wholesale|clientId:wholesale|skuPin:106500804|skuMin:106500783|skuLegacy:0097680,Optional,CS,500,2018-11-28T00:00:00Z
mccolls,AM-37620181129,Optional,Optional,AM,Optional,Optional,Optional,CNV,2018-11-28T00:00:00Z,Optional,376,Optional,Optional,Optional,Optional,Optional,Optional,Optional,2018-11-29,2018-11-29,108095742,0,skuPin,barcodeEan:wholesale|clientId:wholesale|skuPin:108095742|skuMin:100374595|skuLegacy:114054,Optional,CS,5,2018-11-28T00:00:00Z
