FHEAD0000000001RTLG201901110722072019011129624                                   
THEAD0000000002WEB  201901110717050001547148          WHOLESALE SALE        0000000000                                                                                                                                                                                                                         P00000000000000000000    1547190984                                                                                      
TITEM0000000003S     ITEM  ITEM   109250521                                                                  0000000000000000000000000            P000000600000EA  00000000000000005600      00000000000000000000N                                                                                                                                N      WHOLESALE         N000000600000N                                                                                          
TTEND0000000004CASH  1     P00000000000000336000                                                                                             0                        0                                                             0000000000                                              GBP00000000000000336000                                                                                                                        
TTAIL00000000050000000002
FTAIL00000000060000000004
